AD7606/.Xil/Vivado-25016-CCC/hw_ila_data_1/zip_work/waveform.vcd
$date
        2025-Dec-12 20:41:52
$end
$version
        Vivado v2025.1 (64-bit)
$end
$timescale
        1ps
$end
$scope module dut $end
$var reg 16 " ch0_data [15:0] $end
$var reg 16 2 ch1_data [15:0] $end
$var reg 16 B ch2_data [15:0] $end
$var reg 16 R ch3_data [15:0] $end
$var reg 1 b data_valid $end
$var reg 1 c rst_n_IBUF $end
$var reg 1 d busy_IBUF $end
$var reg 1 e rd_OBUF $end
$var reg 1 f reset_OBUF $end
$var reg 1 g cs_OBUF $end
$var reg 16 h p_1_in [15:0] $end
$var reg 1 x convst_OBUF $end
$var reg 1 y _TRIGGER $end
$var reg 1 z _WINDOW $end
$var reg 1 { _GAP $end
$upscope $end
$enddefinitions $end
#0
$dumpvars
b11101001100001 "
b1000110 2
b11101110011111 B
b1000101 R
0b
1c
1d
1e
0f
1g
b1000101 h
1x
0y
1z
0{
$end
#134
0d
#141
0e
0g
#142
b11101001011111 h
#145
b11101001011111 "
1e
1g
#148
0e
0g
#149
b11101110100010 h
#152
b11101110100010 B
1e
1g
#155
0e
0g
#156
b1000110 h
#159
1e
1g
#162
0e
0g
#166
b1000110 R
1b
1e
1g
#167
0b
#186
0x
#189
1x
#190
1d
#383
0d
#391
0e
0g
b1000100 h
#392
b11101001100000 h
#395
b11101001100000 "
1e
1g
#398
0e
0g
#399
b11101110011111 h
#402
b11101110011111 B
1e
1g
#405
0e
0g
#406
b1000101 h
#409
b1000101 2
1e
1g
#412
0e
0g
#413
b1000110 h
#416
1b
1e
1g
#417
0b
#436
0x
#439
1x
#440
1d
#633
0d
#641
0e
0g
b1000100 h
#642
b11101001100000 h
#645
1e
1g
#648
0e
0g
#649
b11101110011111 h
#652
1e
1g
#655
0e
0g
#656
b1000110 h
#659
b1000110 2
1e
1g
#662
0e
0g
#663
b1000101 h
#666
b1000101 R
1b
1e
1g
#667
0b
#686
0x
#689
1x
#690
1d
#884
0d
#891
0e
0g
#892
b11101001011101 h
#895
b11101001011101 "
1e
1g
#898
0e
0g
#899
b11101110011011 h
#902
b11101110011011 B
1e
1g
#905
0e
0g
#906
b1000110 h
#909
1e
1g
#912
0e
0g
#916
b1000110 R
1b
1e
1g
#917
0b
#936
0x
#939
1x
#940
1d
#1134
0d
#1141
0e
0g
b1000100 h
#1142
b11101001011101 h
#1145
1e
1g
#1148
0e
0g
#1149
b11101110011111 h
#1152
b11101110011111 B
1e
1g
#1155
0e
0g
#1156
b1000110 h
#1159
1e
1g
#1162
0e
0g
#1166
1b
1e
1g
#1167
0b
#1186
0x
#1189
1x
#1190
1d
#1384
0d
#1391
0e
0g
b1000100 h
#1392
b11101001011100 h
#1395
b11101001011100 "
1e
1g
#1398
0e
0g
#1399
b11101110100001 h
#1402
b11101110100001 B
1e
1g
#1405
0e
0g
#1406
b1000101 h
#1409
b1000101 2
1e
1g
#1412
0e
0g
#1416
b1000101 R
1b
1e
1g
#1417
0b
#1436
0x
#1439
1x
#1440
1d
#1634
0d
#1641
0e
0g
#1642
b11101001011111 h
#1645
b11101001011111 "
1e
1g
#1648
0e
0g
#1649
b11101110011110 h
#1652
b11101110011110 B
1e
1g
#1655
0e
0g
#1656
b1000101 h
#1659
1e
1g
#1662
0e
0g
#1663
b1000110 h
#1666
b1000110 R
1b
1e
1g
#1667
0b
#1686
0x
#1689
1x
#1690
1d
#1884
0d
#1891
0e
0g
#1892
b11101001011011 h
#1895
b11101001011011 "
1e
1g
#1898
0e
0g
#1899
b11101110011111 h
#1902
b11101110011111 B
1e
1g
#1905
0e
0g
#1906
b1000101 h
#1909
1e
1g
#1912
0e
0g
#1913
b1000110 h
#1916
1b
1e
1g
#1917
0b
#1936
0x
#1939
1x
#1940
1d
#2133
0d
#2140
0e
0g
b1000100 h
#2141
b11101001011101 h
#2144
b11101001011101 "
1e
1g
#2147
0e
0g
#2148
b11101110011101 h
#2151
b11101110011101 B
1e
1g
#2154
0e
0g
#2155
b1000110 h
#2158
b1000110 2
1e
1g
#2161
0e
0g
#2165
1b
1e
1g
#2166
0b
#2186
0x
#2189
1x
#2190
1d
#2384
0d
#2391
0e
0g
#2392
b11101001011110 h
#2395
b11101001011110 "
1e
1g
#2398
0e
0g
#2399
b11101110101011 h
#2402
b11101110101011 B
1e
1g
#2405
0e
0g
#2406
b1000110 h
#2409
1e
1g
#2412
0e
0g
#2416
1b
1e
1g
#2417
0b
#2436
0x
#2439
1x
#2440
1d
#2634
0d
#2641
0e
0g
#2642
b11101001011110 h
#2645
1e
1g
#2648
0e
0g
#2649
b11101110011110 h
#2652
b11101110011110 B
1e
1g
#2655
0e
0g
#2656
b1000110 h
#2659
1e
1g
#2662
0e
0g
#2666
1b
1e
1g
#2667
0b
#2686
0x
#2689
1x
#2690
1d
#2884
0d
#2891
0e
0g
#2892
b11101001011110 h
#2895
1e
1g
#2898
0e
0g
#2899
b11101110011101 h
#2902
b11101110011101 B
1e
1g
#2905
0e
0g
#2906
b1000110 h
#2909
1e
1g
#2912
0e
0g
#2913
b1000101 h
#2916
b1000101 R
1b
1e
1g
#2917
0b
#2936
0x
#2939
1x
#2940
1d
#3133
0d
#3141
0e
0g
b1000100 h
#3142
b11101001100010 h
#3145
b11101001100010 "
1e
1g
#3148
0e
0g
#3149
b11101110011011 h
#3152
b11101110011011 B
1e
1g
#3155
0e
0g
#3156
b1000111 h
#3159
b1000111 2
1e
1g
#3162
0e
0g
#3163
b1000101 h
#3166
1b
1e
1g
#3167
0b
#3186
0x
#3189
1x
#3190
1d
#3384
0d
#3391
0e
0g
b1000100 h
#3392
b11101001100010 h
#3395
1e
1g
#3398
0e
0g
#3399
b11101110011101 h
#3402
b11101110011101 B
1e
1g
#3405
0e
0g
#3406
b1000110 h
#3409
b1000110 2
1e
1g
#3412
0e
0g
#3413
b1000101 h
#3416
1b
1e
1g
#3417
0b
#3436
0x
#3439
1x
#3440
1d
#3633
0d
#3641
0e
0g
b1000100 h
#3642
b11101001100000 h
#3645
b11101001100000 "
1e
1g
#3648
0e
0g
#3649
b11101110011110 h
#3652
b11101110011110 B
1e
1g
#3655
0e
0g
#3656
b1000111 h
#3659
b1000111 2
1e
1g
#3662
0e
0g
#3663
b1000101 h
#3666
1b
1e
1g
#3667
0b
#3686
0x
#3689
1x
#3690
1d
#3883
0d
#3890
0e
0g
b1000100 h
#3891
b11101001100010 h
#3894
b11101001100010 "
1e
1g
#3897
0e
0g
#3898
b11101110011011 h
#3901
b11101110011011 B
1e
1g
#3904
0e
0g
#3905
b1000111 h
#3908
1e
1g
#3911
0e
0g
#3912
b1000101 h
#3915
1b
1e
1g
#3916
0b
#3936
0x
#3939
1x
#3940
1d
#4133
0d
#4141
0e
0g
#4142
b11101001011111 h
#4145
b11101001011111 "
1e
1g
#4148
0e
0g
#4149
b11101110011100 h
#4152
b11101110011100 B
1e
1g
#4155
0e
0g
#4156
b1000111 h
#4159
1e
1g
#4162
0e
0g
#4163
b1000100 h
#4166
b1000100 R
1b
1e
1g
#4167
0b
#4186
0x
#4189
1x
#4190
1d
#4383
0d
#4391
0e
0g
#4392
b11101001011101 h
#4395
b11101001011101 "
1e
1g
#4398
0e
0g
#4399
b11101110100010 h
#4402
b11101110100010 B
1e
1g
#4405
0e
0g
#4406
b1000111 h
#4409
1e
1g
#4412
0e
0g
#4413
b1000101 h
#4416
b1000101 R
1b
1e
1g
#4417
0b
#4436
0x
#4439
1x
#4440
1d
#4633
0d
#4641
0e
0g
b1000100 h
#4642
b11101001100010 h
#4645
b11101001100010 "
1e
1g
#4648
0e
0g
#4649
b11101110100001 h
#4652
b11101110100001 B
1e
1g
#4655
0e
0g
#4656
b1000110 h
#4659
b1000110 2
1e
1g
#4662
0e
0g
#4663
b1000101 h
#4666
1b
1e
1g
#4667
0b
#4686
0x
#4689
1x
#4690
1d
#4883
0d
#4890
0e
0g
#4891
b11101001011111 h
#4894
b11101001011111 "
1e
1g
#4897
0e
0g
#4898
b11101110011101 h
#4901
b11101110011101 B
1e
1g
#4904
0e
0g
#4905
b1000101 h
#4908
b1000101 2
1e
1g
#4911
0e
0g
#4912
b1000110 h
#4915
b1000110 R
1b
1e
1g
#4916
0b
#4936
0x
#4939
1x
#4940
1d
#5133
0d
#5140
0e
0g
b1000100 h
#5141
b11101001011100 h
#5144
b11101001011100 "
1e
1g
#5147
0e
0g
#5148
b11101110011111 h
#5151
b11101110011111 B
1e
1g
#5154
0e
0g
#5155
b1000101 h
#5158
1e
1g
#5161
0e
0g
#5165
b1000101 R
1b
1e
1g
#5166
0b
#5186
0x
#5189
1x
#5190
1d
#5383
0d
#5390
0e
0g
b1000100 h
#5391
b11101001011100 h
#5394
1e
1g
#5397
0e
0g
#5398
b11101110011101 h
#5401
b11101110011101 B
1e
1g
#5404
0e
0g
#5405
b1000101 h
#5408
1e
1g
#5411
0e
0g
#5412
b1000110 h
#5415
b1000110 R
1b
1e
1g
#5416
0b
#5436
0x
#5439
1x
#5440
1d
#5633
0d
#5641
0e
0g
b1000100 h
#5642
b11101001011100 h
#5645
1e
1g
#5648
0e
0g
#5649
b11101110011110 h
#5652
b11101110011110 B
1e
1g
#5655
0e
0g
#5656
b1000101 h
#5659
1e
1g
#5662
0e
0g
#5663
b1000110 h
#5666
1b
1e
1g
#5667
0b
#5686
0x
#5689
1x
#5690
1d
#5884
0d
#5891
0e
0g
#5892
b11101001011110 h
#5895
b11101001011110 "
1e
1g
#5898
0e
0g
#5899
b11101110011111 h
#5902
b11101110011111 B
1e
1g
#5905
0e
0g
#5906
b1000110 h
#5909
b1000110 2
1e
1g
#5912
0e
0g
#5916
1b
1e
1g
#5917
0b
#5936
0x
#5939
1x
#5940
1d
#6134
0d
#6141
0e
0g
#6142
b11101001011111 h
#6145
b11101001011111 "
1e
1g
#6148
0e
0g
#6149
b11101110011110 h
#6152
b11101110011110 B
1e
1g
#6155
0e
0g
#6156
b1000110 h
#6159
1e
1g
#6162
0e
0g
#6163
b1000101 h
#6166
b1000101 R
1b
1e
1g
#6167
0b
#6186
0x
#6189
1x
#6190
1d
#6384
0d
#6391
0e
0g
#6392
b11101001011011 h
#6395
b11101001011011 "
1e
1g
#6398
0e
0g
#6399
b11101110011101 h
#6402
b11101110011101 B
1e
1g
#6405
0e
0g
#6406
b1000101 h
#6409
b1000101 2
1e
1g
#6412
0e
0g
#6416
1b
1e
1g
#6417
0b
#6436
0x
#6439
1x
#6440
1d
#6634
0d
#6641
0e
0g
#6642
b11101001100001 h
#6645
b11101001100001 "
1e
1g
#6648
0e
0g
#6649
b11101110011011 h
#6652
b11101110011011 B
1e
1g
#6655
0e
0g
#6656
b1000111 h
#6659
b1000111 2
1e
1g
#6662
0e
0g
#6663
b1000100 h
#6666
b1000100 R
1b
1e
1g
#6667
0b
#6686
0x
#6689
1x
#6690
1d
#6884
0d
#6891
0e
0g
#6892
b11101001011101 h
#6895
b11101001011101 "
1e
1g
#6898
0e
0g
#6899
b11101110011100 h
#6902
b11101110011100 B
1e
1g
#6905
0e
0g
#6906
b1000101 h
#6909
b1000101 2
1e
1g
#6912
0e
0g
#6916
b1000101 R
1b
1e
1g
#6917
0b
#6936
0x
#6939
1x
#6940
1d
#7133
0d
#7140
0e
0g
#7141
b11101001011111 h
#7144
b11101001011111 "
1e
1g
#7147
0e
0g
#7148
b11101110011110 h
#7151
b11101110011110 B
1e
1g
#7154
0e
0g
#7155
b1000110 h
#7158
b1000110 2
1e
1g
#7161
0e
0g
#7165
b1000110 R
1b
1e
1g
#7166
0b
#7186
0x
#7189
1x
#7190
1d
#7384
0d
#7391
0e
0g
b1000100 h
#7392
b11101001011101 h
#7395
b11101001011101 "
1e
1g
#7398
0e
0g
#7399
b11101110011100 h
#7402
b11101110011100 B
1e
1g
#7405
0e
0g
#7406
b1000110 h
#7409
1e
1g
#7412
0e
0g
#7416
1b
1e
1g
#7417
0b
#7436
0x
#7439
1x
#7440
1d
#7634
0d
#7641
0e
0g
b1000100 h
#7642
b11101001011100 h
#7645
b11101001011100 "
1e
1g
#7648
0e
0g
#7649
b11101110100010 h
#7652
b11101110100010 B
1e
1g
#7655
0e
0g
#7656
b1000110 h
#7659
1e
1g
#7662
0e
0g
#7666
1b
1e
1g
#7667
0b
#7686
0x
#7689
1x
#7690
1d
#7884
0d
#7891
0e
0g
#7892
b11101001011111 h
#7895
b11101001011111 "
1e
1g
#7898
0e
0g
#7899
b11101110100000 h
#7902
b11101110100000 B
1e
1g
#7905
0e
0g
#7906
b1000110 h
#7909
1e
1g
#7912
0e
0g
#7913
b1000101 h
#7916
b1000101 R
1b
1e
1g
#7917
0b
#7936
0x
#7939
1x
#7940
1d
#8134
0d
#8141
0e
0g
b1000100 h
#8142
b11101001100000 h
#8145
b11101001100000 "
1e
1g
#8148
0e
0g
#8149
b11101110011100 h
#8152
b11101110011100 B
1e
1g
#8155
0e
0g
#8156
b1000110 h
#8159
1e
1g
#8162
0e
0g
#8163
b1000101 h
#8166
1b
1e
1g
#8167
0b
#8186
0x
#8189
1x
#8190
1d
#8384
0d
#8391
0e
0g
b1000100 h
#8392
b11101001100010 h
#8395
b11101001100010 "
1e
1g
#8398
0e
0g
#8399
b11101110011011 h
#8402
b11101110011011 B
1e
1g
#8405
0e
0g
#8406
b1000110 h
#8409
1e
1g
#8412
0e
0g
#8413
b1000101 h
#8416
1b
1e
1g
#8417
0b
#8436
0x
#8439
1x
#8440
1d
#8634
0d
#8641
0e
0g
b1000100 h
#8642
b11101001100000 h
#8645
b11101001100000 "
1e
1g
#8648
0e
0g
#8649
b11101110100001 h
#8652
b11101110100001 B
1e
1g
#8655
0e
0g
#8656
b1000111 h
#8659
b1000111 2
1e
1g
#8662
0e
0g
#8663
b1000101 h
#8666
1b
1e
1g
#8667
0b
#8686
0x
#8689
1x
#8690
1d
#8884
0d
#8891
0e
0g
#8892
b11101001011111 h
#8895
b11101001011111 "
1e
1g
#8898
0e
0g
#8899
b11101110100001 h
#8902
1e
1g
#8905
0e
0g
#8906
b1000101 h
#8909
b1000101 2
1e
1g
#8912
0e
0g
#8913
b1000110 h
#8916
b1000110 R
1b
1e
1g
#8917
0b
#8936
0x
#8939
1x
#8940
1d
#9134
0d
#9141
0e
0g
b1000100 h
#9142
b11101001011100 h
#9145
b11101001011100 "
1e
1g
#9148
0e
0g
#9149
b11101110011110 h
#9152
b11101110011110 B
1e
1g
#9155
0e
0g
#9156
b1000111 h
#9159
b1000111 2
1e
1g
#9162
0e
0g
#9163
b1000101 h
#9166
b1000101 R
1b
1e
1g
#9167
0b
#9186
0x
#9189
1x
#9190
1d
#9384
0d
#9391
0e
0g
#9392
b11101001011111 h
#9395
b11101001011111 "
1e
1g
#9398
0e
0g
#9399
b11101110100000 h
#9402
b11101110100000 B
1e
1g
#9405
0e
0g
#9406
b1000101 h
#9409
b1000101 2
1e
1g
#9412
0e
0g
#9416
1b
1e
1g
#9417
0b
#9436
0x
#9439
1x
#9440
1d
#9633
0d
#9640
0e
0g
b1000100 h
#9641
b11101001001010 h
#9644
b11101001001010 "
1e
1g
#9647
0e
0g
#9648
b11101110011011 h
#9651
b11101110011011 B
1e
1g
#9654
0e
0g
#9655
b1000101 h
#9658
1e
1g
#9661
0e
0g
#9662
b1000110 h
#9665
b1000110 R
1b
1e
1g
#9666
0b
#9686
0x
#9689
1x
#9690
1d
#9883
0d
#9891
0e
0g
#9892
b11101001011011 h
#9895
b11101001011011 "
1e
1g
#9898
0e
0g
#9899
b11101110100000 h
#9902
b11101110100000 B
1e
1g
#9905
0e
0g
#9906
b1000110 h
#9909
b1000110 2
1e
1g
#9912
0e
0g
#9913
b1000101 h
#9916
b1000101 R
1b
1e
1g
#9917
0b
#9936
0x
#9939
1x
#9940
1d
#10134
0d
#10141
0e
0g
#10142
b11101001011101 h
#10145
b11101001011101 "
1e
1g
#10148
0e
0g
#10149
b11101110011111 h
#10152
b11101110011111 B
1e
1g
#10155
0e
0g
#10156
b1000110 h
#10159
1e
1g
#10162
0e
0g
#10163
b1000100 h
#10166
b1000100 R
1b
1e
1g
#10167
0b
#10186
0x
#10189
1x
#10190
1d
#10384
0d
#10391
0e
0g
#10392
b11101001100000 h
#10395
b11101001100000 "
1e
1g
#10398
0e
0g
#10399
b11101110011011 h
#10402
b11101110011011 B
1e
1g
#10405
0e
0g
#10406
b1000110 h
#10409
1e
1g
#10412
0e
0g
#10413
b1000101 h
#10416
b1000101 R
1b
1e
1g
#10417
0b
#10436
0x
#10439
1x
#10440
1d
#10634
0d
#10641
0e
0g
#10642
b11101001011101 h
#10645
b11101001011101 "
1e
1g
#10648
0e
0g
#10649
b11101110011101 h
#10652
b11101110011101 B
1e
1g
#10655
0e
0g
#10656
b1001000 h
#10659
b1001000 2
1e
1g
#10662
0e
0g
#10663
b1000110 h
#10666
b1000110 R
1b
1e
1g
#10667
0b
#10686
0x
#10689
1x
#10690
1d
#10884
0d
#10891
0e
0g
b1000100 h
#10892
b11101001011101 h
#10895
1e
1g
#10898
0e
0g
#10899
b11101110011111 h
#10902
b11101110011111 B
1e
1g
#10905
0e
0g
#10906
b1000110 h
#10909
b1000110 2
1e
1g
#10912
0e
0g
#10916
1b
1e
1g
#10917
0b
#10936
0x
#10939
1x
#10940
1d
#11133
0d
#11141
0e
0g
#11142
b11101001011110 h
#11145
b11101001011110 "
1e
1g
#11148
0e
0g
#11149
b11101110011111 h
#11152
1e
1g
#11155
0e
0g
#11156
b1000110 h
#11159
1e
1g
#11162
0e
0g
#11163
b1000101 h
#11166
b1000101 R
1b
1e
1g
#11167
0b
#11186
0x
#11189
1x
#11190
1d
#11384
0d
#11391
0e
0g
b1000100 h
#11392
b11101001000010 h
#11395
b11101001000010 "
1e
1g
#11398
0e
0g
#11399
b11101110100001 h
#11402
b11101110100001 B
1e
1g
#11405
0e
0g
#11406
b1000111 h
#11409
b1000111 2
1e
1g
#11412
0e
0g
#11413
b1000101 h
#11416
1b
1e
1g
#11417
0b
#11436
0x
#11439
1x
#11440
1d
#11634
0d
#11641
0e
0g
#11642
b11101001011111 h
#11645
b11101001011111 "
1e
1g
#11648
0e
0g
#11649
b11101110100000 h
#11652
b11101110100000 B
1e
1g
#11655
0e
0g
#11656
b1000110 h
#11659
b1000110 2
1e
1g
#11662
0e
0g
#11666
b1000110 R
1b
1e
1g
#11667
0b
#11686
0x
#11689
1x
#11690
1d
#11883
0d
#11890
0e
0g
b1000100 h
#11891
b11101001001001 h
#11894
b11101001001001 "
1e
1g
#11897
0e
0g
#11898
b11101110011101 h
#11901
b11101110011101 B
1e
1g
#11904
0e
0g
#11905
b1000111 h
#11908
b1000111 2
1e
1g
#11911
0e
0g
#11912
b1000101 h
#11915
b1000101 R
1b
1e
1g
#11916
0b
#11936
0x
#11939
1x
#11940
1d
#12133
0d
#12141
0e
0g
#12142
b11101001100001 h
#12145
b11101001100001 "
1e
1g
#12148
0e
0g
#12149
b11101110011111 h
#12152
b11101110011111 B
1e
1g
#12155
0e
0g
#12156
b1000111 h
#12159
1e
1g
#12162
0e
0g
#12163
b1000110 h
#12166
b1000110 R
1b
1e
1g
#12167
0b
#12186
0x
#12189
1x
#12190
1d
#12384
0d
#12391
0e
0g
b1000100 h
#12392
b11101001011100 h
#12395
b11101001011100 "
1e
1g
#12398
0e
0g
#12399
b11101110011101 h
#12402
b11101110011101 B
1e
1g
#12405
0e
0g
#12406
b1000110 h
#12409
b1000110 2
1e
1g
#12412
0e
0g
#12413
b1000101 h
#12416
b1000101 R
1b
1e
1g
#12417
0b
#12436
0x
#12439
1x
#12440
1d
#12633
0d
#12641
0e
0g
b1000100 h
#12642
b11101001100010 h
#12645
b11101001100010 "
1e
1g
#12648
0e
0g
#12649
b11101110011101 h
#12652
1e
1g
#12655
0e
0g
#12656
b1000110 h
#12659
1e
1g
#12662
0e
0g
#12663
b1000101 h
#12666
1b
1e
1g
#12667
0b
#12686
0x
#12689
1x
#12690
1d
#12883
0d
#12890
0e
0g
b1000100 h
#12891
b11101001011100 h
#12894
b11101001011100 "
1e
1g
#12897
0e
0g
#12898
b11101110100000 h
#12901
b11101110100000 B
1e
1g
#12904
0e
0g
#12905
b1000101 h
#12908
b1000101 2
1e
1g
#12911
0e
0g
#12915
1b
1e
1g
#12916
0b
#12936
0x
#12939
1x
#12940
1d
#13133
0d
#13140
0e
0g
b1000100 h
#13141
b11101001011110 h
#13144
b11101001011110 "
1e
1g
#13147
0e
0g
#13148
b11101110011110 h
#13151
b11101110011110 B
1e
1g
#13154
0e
0g
#13155
b1000110 h
#13158
b1000110 2
1e
1g
#13161
0e
0g
#13162
b1000101 h
#13165
1b
1e
1g
#13166
0b
#13186
0x
#13189
1x
#13190
1d
#13383
0d
#13391
0e
0g
#13392
b11101001100001 h
#13395
b11101001100001 "
1e
1g
#13398
0e
0g
#13399
b11101110011011 h
#13402
b11101110011011 B
1e
1g
#13405
0e
0g
#13406
b1000110 h
#13409
1e
1g
#13412
0e
0g
#13416
b1000110 R
1b
1e
1g
#13417
0b
#13436
0x
#13439
1x
#13440
1d
#13634
0d
#13641
0e
0g
#13642
b11101001011111 h
#13645
b11101001011111 "
1e
1g
#13648
0e
0g
#13649
b11101110100001 h
#13652
b11101110100001 B
1e
1g
#13655
0e
0g
#13656
b1000100 h
#13659
b1000100 2
1e
1g
#13662
0e
0g
#13666
b1000100 R
1b
1e
1g
#13667
0b
#13686
0x
#13689
1x
#13690
1d
#13884
0d
#13891
0e
0g
#13892
b11101001011100 h
#13895
b11101001011100 "
1e
1g
#13898
0e
0g
#13899
b11101110011111 h
#13902
b11101110011111 B
1e
1g
#13905
0e
0g
#13906
b1000111 h
#13909
b1000111 2
1e
1g
#13912
0e
0g
#13916
b1000111 R
1b
1e
1g
#13917
0b
#13936
0x
#13939
1x
#13940
1d
#14134
0d
#14141
0e
0g
b1000110 h
#14142
b11101001100010 h
#14145
b11101001100010 "
1e
1g
#14148
0e
0g
#14149
b11101110011101 h
#14152
b11101110011101 B
1e
1g
#14155
0e
0g
#14156
b1000110 h
#14159
b1000110 2
1e
1g
#14162
0e
0g
#14163
b1000111 h
#14166
1b
1e
1g
#14167
0b
#14186
0x
#14189
1x
#14190
1d
#14384
0d
#14391
0e
0g
#14392
b11101001011111 h
#14395
b11101001011111 "
1e
1g
#14398
0e
0g
#14399
b11101110011111 h
#14402
b11101110011111 B
1e
1g
#14405
0e
0g
#14406
b1000110 h
#14409
1e
1g
#14412
0e
0g
#14416
b1000110 R
1b
1e
1g
#14417
0b
#14436
0x
#14439
1x
#14440
1d
#14634
0d
#14641
0e
0g
b1000100 h
#14642
b11101001100000 h
#14645
b11101001100000 "
1e
1g
#14648
0e
0g
#14649
b11101110011110 h
#14652
b11101110011110 B
1e
1g
#14655
0e
0g
#14656
b1000110 h
#14659
1e
1g
#14662
0e
0g
#14666
1b
1e
1g
#14667
0b
#14686
0x
#14689
1x
#14690
1d
#14884
0d
#14891
0e
0g
#14892
b11101001011110 h
#14895
b11101001011110 "
1e
1g
#14898
0e
0g
#14899
b11101110011101 h
#14902
b11101110011101 B
1e
1g
#14905
0e
0g
#14906
b1000110 h
#14909
1e
1g
#14912
0e
0g
#14913
b1000101 h
#14916
b1000101 R
1b
1e
1g
#14917
0b
#14936
0x
#14939
1x
#14940
1d
#15133
0d
#15141
0e
0g
#15142
b11101001011011 h
#15145
b11101001011011 "
1e
1g
#15148
0e
0g
#15149
b11101110011101 h
#15152
1e
1g
#15155
0e
0g
#15156
b1000111 h
#15159
b1000111 2
1e
1g
#15162
0e
0g
#15163
b1000101 h
#15166
1b
1e
1g
#15167
0b
#15186
0x
#15189
1x
#15190
1d
#15383
0d
#15391
0e
0g
#15392
b11101001011011 h
#15395
1e
1g
#15398
0e
0g
#15399
b11101110011111 h
#15402
b11101110011111 B
1e
1g
#15405
0e
0g
#15406
b1000111 h
#15409
1e
1g
#15412
0e
0g
#15413
b1000101 h
#15416
1b
1e
1g
#15417
0b
#15436
0x
#15439
1x
#15440
1d
#15633
0d
#15641
0e
0g
#15642
b11101001011101 h
#15645
b11101001011101 "
1e
1g
#15648
0e
0g
#15649
b11101110100010 h
#15652
b11101110100010 B
1e
1g
#15655
0e
0g
#15656
b1000111 h
#15659
1e
1g
#15662
0e
0g
#15663
b1000110 h
#15666
b1000110 R
1b
1e
1g
#15667
0b
#15686
0x
#15689
1x
#15690
1d
#15884
0d
#15891
0e
0g
#15892
b11101001011110 h
#15895
b11101001011110 "
1e
1g
#15898
0e
0g
#15899
b11101110011111 h
#15902
b11101110011111 B
1e
1g
#15905
0e
0g
#15906
b1000110 h
#15909
b1000110 2
1e
1g
#15912
0e
0g
#15913
b1000101 h
#15916
b1000101 R
1b
1e
1g
#15917
0b
#15936
0x
#15939
1x
#15940
1d
#16134
0d
#16141
0e
0g
b1000100 h
#16142
b11101001011110 h
#16145
1e
1g
#16148
0e
0g
#16149
b11101110011111 h
#16152
1e
1g
#16155
0e
0g
#16156
b1000101 h
#16159
b1000101 2
1e
1g
#16162
0e
0g
#16163
b1000100 h
#16166
b1000100 R
1b
1e
1g
#16167
0b
#16186
0x
#16189
1x
#16190
1d
#16384
0d
1y
#16391
0e
0g
#16392
b11101001011110 h
#16395
1e
1g
#16398
0e
0g
#16399
b11101110011101 h
#16402
b11101110011101 B
1e
1g
#16405
0e
0g
#16406
b1000110 h
#16409
b1000110 2
1e
1g
#16412
0e
0g
#16413
b1000101 h
#16416
b1000101 R
1b
1e
1g
#16417
0b
#16436
0x
#16439
1x
#16440
1d
#16633
0d
#16641
0e
0g
#16642
b11101001011101 h
#16645
b11101001011101 "
1e
1g
#16648
0e
0g
#16649
b11101110011011 h
#16652
b11101110011011 B
1e
1g
#16655
0e
0g
#16656
b1000111 h
#16659
b1000111 2
1e
1g
#16662
0e
0g
#16663
b1000110 h
#16666
b1000110 R
1b
1e
1g
#16667
0b
#16686
0x
#16689
1x
#16690
1d
#16884
0d
#16891
0e
0g
b1000100 h
#16892
b11101001011100 h
#16895
b11101001011100 "
1e
1g
#16898
0e
0g
#16899
b11101110011111 h
#16902
b11101110011111 B
1e
1g
#16905
0e
0g
#16906
b1000110 h
#16909
b1000110 2
1e
1g
#16912
0e
0g
#16913
b1000101 h
#16916
b1000101 R
1b
1e
1g
#16917
0b
#16936
0x
#16939
1x
#16940
1d
#17133
0d
#17141
0e
0g
b1000100 h
#17142
b11101001011100 h
#17145
1e
1g
#17148
0e
0g
#17149
b11101110011101 h
#17152
b11101110011101 B
1e
1g
#17155
0e
0g
#17156
b1000111 h
#17159
b1000111 2
1e
1g
#17162
0e
0g
#17163
b1000101 h
#17166
1b
1e
1g
#17167
0b
#17186
0x
#17189
1x
#17190
1d
#17383
0d
#17390
0e
0g
#17391
b11101001100001 h
#17394
b11101001100001 "
1e
1g
#17397
0e
0g
#17398
b11101110011101 h
#17401
1e
1g
#17404
0e
0g
#17405
b1000110 h
#17408
b1000110 2
1e
1g
#17411
0e
0g
#17415
b1000110 R
1b
1e
1g
#17416
0b
#17436
0x
#17439
1x
#17440
1d
#17633
0d
#17641
0e
0g
b1000100 h
#17642
b11101001011101 h
#17645
b11101001011101 "
1e
1g
#17648
0e
0g
#17649
b11101110011110 h
#17652
b11101110011110 B
1e
1g
#17655
0e
0g
#17656
b1000110 h
#17659
1e
1g
#17662
0e
0g
#17666
1b
1e
1g
#17667
0b
#17686
0x
#17689
1x
#17690
1d
#17883
0d
#17891
0e
0g
b1000100 h
#17892
b11101001100000 h
#17895
b11101001100000 "
1e
1g
#17898
0e
0g
#17899
b11101110011101 h
#17902
b11101110011101 B
1e
1g
#17905
0e
0g
#17906
b1000110 h
#17909
1e
1g
#17912
0e
0g
#17913
b1000101 h
#17916
b1000101 R
1b
1e
1g
#17917
0b
#17936
0x
#17939
1x
#17940
1d
#18134
0d
#18141
0e
0g
b1000100 h
#18142
b11101001011100 h
#18145
b11101001011100 "
1e
1g
#18148
0e
0g
#18149
b11101110011011 h
#18152
b11101110011011 B
1e
1g
#18155
0e
0g
#18156
b1000110 h
#18159
1e
1g
#18162
0e
0g
#18163
b1000101 h
#18166
1b
1e
1g
#18167
0b
#18186
0x
#18189
1x
#18190
1d
#18383
0d
#18391
0e
0g
#18392
b11101001011011 h
#18395
b11101001011011 "
1e
1g
#18398
0e
0g
#18399
b11101110100010 h
#18402
b11101110100010 B
1e
1g
#18405
0e
0g
#18406
b1001000 h
#18409
b1001000 2
1e
1g
#18412
0e
0g
#18413
b1000110 h
#18416
b1000110 R
1b
1e
1g
#18417
0b
#18436
0x
#18439
1x
#18440
1d
#18634
0d
#18641
0e
0g
b1000100 h
#18642
b11101001011100 h
#18645
b11101001011100 "
1e
1g
#18648
0e
0g
#18649
b11101110011011 h
#18652
b11101110011011 B
1e
1g
#18655
0e
0g
#18656
b1000110 h
#18659
b1000110 2
1e
1g
#18662
0e
0g
#18663
b1000101 h
#18666
b1000101 R
1b
1e
1g
#18667
0b
#18686
0x
#18689
1x
#18690
1d
#18883
0d
#18890
0e
0g
b1000100 h
#18891
b11101001011100 h
#18894
1e
1g
#18897
0e
0g
#18898
b11101110100000 h
#18901
b11101110100000 B
1e
1g
#18904
0e
0g
#18905
b1000111 h
#18908
b1000111 2
1e
1g
#18911
0e
0g
#18912
b1000110 h
#18915
b1000110 R
1b
1e
1g
#18916
0b
#18936
0x
#18939
1x
#18940
1d
#19133
0d
#19141
0e
0g
b1000100 h
#19142
b11101001011101 h
#19145
b11101001011101 "
1e
1g
#19148
0e
0g
#19149
b11101110100010 h
#19152
b11101110100010 B
1e
1g
#19155
0e
0g
#19156
b1000110 h
#19159
b1000110 2
1e
1g
#19162
0e
0g
#19163
b1000100 h
#19166
b1000100 R
1b
1e
1g
#19167
0b
